%DAWG J1 VIIRS Band Average "Fused" RSR Release V2 Band I2
%Based upon VCST PR2.11 Set 5.1 analysis (TSIRCUS) and DAWG V1 release (SpMA)
%Using J1 VIIRS FP-15,-16 RSR Measurements at Raytheon El Segundo, July - October 2015 and TSIRCUS RSR measurements December 2015
%Band   wvl_nm        RSR
   I2  352.002   0.1000000E-09
   I2  357.497   0.1000000E-09
   I2  363.001   0.1000000E-09
   I2  368.502   0.1000000E-09
   I2  373.990   0.1000000E-09
   I2  379.507   0.1000000E-09
   I2  384.998   0.1000000E-09
   I2  390.498   0.1000000E-09
   I2  395.993   0.1000000E-09
   I2  401.504   0.1000000E-09
   I2  407.000   0.1000000E-09
   I2  412.495   0.1000000E-09
   I2  417.995   0.1000000E-09
   I2  423.502   0.1000000E-09
   I2  428.997   0.1000000E-09
   I2  434.503   0.1000000E-09
   I2  440.010   0.1000000E-09
   I2  445.497   0.1000000E-09
   I2  450.993   0.1000000E-09
   I2  456.505   0.1000000E-09
   I2  462.003   0.1000000E-09
   I2  467.498   0.1000000E-09
   I2  473.001   0.1000000E-09
   I2  478.501   0.1000000E-09
   I2  483.998   0.1000000E-09
   I2  489.488   0.1000000E-09
   I2  495.000   0.1000000E-09
   I2  500.495   0.1000000E-09
   I2  505.991   0.1000000E-09
   I2  511.497   0.1000000E-09
   I2  517.006   0.1000000E-09
   I2  522.497   0.1000000E-09
   I2  528.006   0.1000000E-09
   I2  533.495   0.1000000E-09
   I2  539.000   0.1000000E-09
   I2  544.501   0.1000000E-09
   I2  549.992   0.1000000E-09
   I2  555.495   0.1000000E-09
   I2  561.006   0.1000000E-09
   I2  566.499   0.1000000E-09
   I2  572.005   0.1000000E-09
   I2  577.504   0.1000000E-09
   I2  583.000   0.1000000E-09
   I2  588.499   0.1000000E-09
   I2  593.996   0.1000000E-09
   I2  599.499   0.1534473E-04
   I2  604.998   0.2174164E-04
   I2  610.496   0.2290841E-04
   I2  616.005   0.2570802E-04
   I2  621.497   0.2776628E-04
   I2  626.996   0.2941947E-04
   I2  632.499   0.2429101E-04
   I2  638.004   0.2325875E-04
   I2  643.501   0.2612406E-04
   I2  648.994   0.2974791E-04
   I2  654.502   0.2709845E-04
   I2  659.992   0.2907538E-04
   I2  665.501   0.2841068E-04
   I2  671.003   0.3178116E-04
   I2  676.494   0.3029063E-04
   I2  682.009   0.1703858E-04
   I2  687.500   0.6303056E-05
   I2  692.991   0.1000000E-09
   I2  698.491   0.1000000E-09
   I2  704.001   0.1106554E-04
   I2  709.492   0.1711679E-04
   I2  715.003   0.2051543E-04
   I2  716.29210   0.0000648  
   I2  717.16200   0.0000483  
   I2  718.03800   0.0000567  
   I2  718.91400   0.0000648  
   I2  719.76110   0.0000511  
   I2  720.88280   0.0000256  
   I2  721.78270   0.0000319  
   I2  722.67080   0.0000288  
   I2  723.58270   0.0000339  
   I2  724.54150   0.0000907  
   I2  725.45580   0.0002593  
   I2  726.35360   0.0005216  
   I2  727.25020   0.0006920  
   I2  728.14760   0.0003387  
   I2  729.29870   0.0000670  
   I2  730.18740   0.0000441  
   I2  731.20480   0.0000428  
   I2  732.11930   0.0000735  
   I2  733.04750   0.0001462  
   I2  733.44840   0.0002719  
   I2  733.60320   0.0002056  
   I2  733.96750   0.0002335  
   I2  734.03920   0.0002101  
   I2  734.04040   0.0001979  
   I2  734.36460   0.0002578  
   I2  734.38340   0.0002252  
   I2  734.57620   0.0002270  
   I2  734.81470   0.0002276  
   I2  734.88170   0.0002462  
   I2  734.93920   0.0002098  
   I2  735.82880   0.0000274  
   I2  737.01000   0.0000253  
   I2  739.50620   0.0001400  
   I2  740.30320   0.0001648  
   I2  740.86590   0.0001387  
   I2  741.68210   0.0001548  
   I2  742.14830   0.0001263  
   I2  742.69860   0.0001155  
   I2  742.97180   0.0001784  
   I2  743.07110   0.0001754  
   I2  743.16780   0.0001105  
   I2  743.52160   0.0001100  
   I2  744.46120   0.0001837  
   I2  744.83420   0.0001242  
   I2  745.40320   0.0001350  
   I2  745.97570   0.0001032  
   I2  746.44880   0.0001152  
   I2  748.13000   0.0001255  
   I2  749.72180   0.0001526  
   I2  751.07910   0.0000878  
   I2  751.51860   0.0001689  
   I2  751.96070   0.0001714  
   I2  753.502   0.1000000E-09
   I2  754.91730   0.0000085  
   I2  755.88650   0.0000253  
   I2  758.994   0.1000000E-09
   I2  764.497   0.1000000E-09
   I2  770.003   0.1000000E-09
   I2  775.506   0.1000000E-09
   I2  776.10720   0.0000260  
   I2  780.44420   0.0000343  
   I2  783.90350   0.0000288  
   I2  788.44420   0.0000371  
   I2  789.52030   0.0000407  
   I2  790.78170   0.0000308  
   I2  791.85500   0.0000482  
   I2  792.91710   0.0000417  
   I2  794.02040   0.0000587  
   I2  795.27860   0.0000422  
   I2  796.39000   0.0000567  
   I2  797.68330   0.0000516  
   I2  798.75810   0.0000514  
   I2  800.14680   0.0000560  
   I2  800.92010   0.0000639  
   I2  801.72680   0.0000481  
   I2  802.56780   0.0000744  
   I2  803.38790   0.0000740  
   I2  804.29680   0.0000593  
   I2  805.23830   0.0000647  
   I2  806.06020   0.0000586  
   I2  806.89400   0.0000666  
   I2  807.72810   0.0000517  
   I2  808.55910   0.0000583  
   I2  809.47240   0.0000477  
   I2  810.44540   0.0000665  
   I2  811.30560   0.0000549  
   I2  812.11780   0.0000635  
   I2  812.97160   0.0000543  
   I2  813.80660   0.0000600  
   I2  814.66330   0.0000723  
   I2  815.50600   0.0000565  
   I2  816.58690   0.0000514  
   I2  817.43010   0.0000598  
   I2  818.27780   0.0000602  
   I2  819.14020   0.0000474  
   I2  819.97760   0.0000475  
   I2  820.83950   0.0000508  
   I2  821.95790   0.0000488  
   I2  822.56900   0.0000426  
   I2  823.66520   0.0000543  
   I2  824.51450   0.0000401  
   I2  825.39750   0.0000653  
   I2  826.25200   0.0000503  
   I2  827.13490   0.0000806  
   I2  828.00470   0.0000751  
   I2  829.11460   0.0000593  
   I2  829.98030   0.0000580  
   I2  830.86720   0.0000725  
   I2  831.75930   0.0000799  
   I2  832.63040   0.0000838  
   I2  833.51800   0.0000844  
   I2  834.40070   0.0001093  
   I2  834.97210   0.0001280  
   I2  835.27050   0.0001245  
   I2  835.56100   0.0001231  
   I2  835.57340   0.0001345  
   I2  835.65610   0.0001187  
   I2  836.17550   0.0001925  
   I2  836.36940   0.0001793  
   I2  836.68650   0.0001924  
   I2  837.18470   0.0002377  
   I2  838.20670   0.0004024  
   I2  838.50570   0.0004401  
   I2  838.52430   0.0004163  
   I2  838.88120   0.0006019  
   I2  839.08520   0.0007065  
   I2  839.10400   0.0006509  
   I2  839.16460   0.0006506  
   I2  839.50440   0.0009012  
   I2  839.99280   0.0013088  
   I2  840.28160   0.0015131  
   I2  840.33270   0.0016172  
   I2  840.88590   0.0025168  
   I2  841.56170   0.0039918  
   I2  841.78510   0.0049350  
   I2  841.87480   0.0052525  
   I2  842.09280   0.0061307  
   I2  842.13760   0.0062653  
   I2  842.65410   0.0096973  
   I2  842.67000   0.0097854  
   I2  842.69560   0.0100294  
   I2  843.30670   0.0160292  
   I2  843.58320   0.0196231  
   I2  843.93750   0.0255955  
   I2  844.21530   0.0315315  
   I2  844.47330   0.0377303  
   I2  844.56630   0.0400321  
   I2  845.39880   0.0707013  
   I2  845.66560   0.0836752  
   I2  845.71440   0.0863355  
   I2  846.01440   0.0982848  
   I2  846.05130   0.1073162  
   I2  846.28800   0.1232297  
   I2  846.29930   0.1238063  
   I2  846.32150   0.1255818  
   I2  846.67820   0.1545799  
   I2  846.89250   0.1742798  
   I2  846.93400   0.1783149  
   I2  847.47010   0.2369643  
   I2  847.49590   0.2402453  
   I2  847.85690   0.2772836  
   I2  848.13220   0.3254656  
   I2  848.16130   0.3295610  
   I2  848.39300   0.3660017  
   I2  848.72180   0.4186089  
   I2  848.76830   0.4263543  
   I2  849.08650   0.4795744  
   I2  849.31630   0.5208112  
   I2  849.36020   0.5282494  
   I2  849.69630   0.5860602  
   I2  849.91450   0.6226504  
   I2  849.95570   0.6290117  
   I2  850.00070   0.6447468  
   I2  850.54450   0.7225298  
   I2  850.61040   0.7312733  
   I2  851.11930   0.7973244  
   I2  851.16240   0.8021751  
   I2  851.20750   0.8051250  
   I2  851.54740   0.8422939  
   I2  851.75840   0.8589344  
   I2  851.80200   0.8630347  
   I2  852.34780   0.8965449  
   I2  852.39880   0.8986695  
   I2  853.01510   0.9226754  
   I2  853.58740   0.9377400  
   I2  853.61100   0.9382479  
   I2  853.65840   0.9387794  
   I2  854.22750   0.9494424  
   I2  854.23160   0.9487899  
   I2  854.83600   0.9576835  
   I2  854.87640   0.9582629  
   I2  855.48260   0.9646028  
   I2  855.79050   0.9674122  
   I2  856.02300   0.9691296  
   I2  856.07300   0.9688368  
   I2  856.10110   0.9690885  
   I2  856.59760   0.9727139  
   I2  857.04460   0.9736906  
   I2  857.29960   0.9737616  
   I2  857.33780   0.9733667  
   I2  857.68570   0.9738927  
   I2  857.90760   0.9730281  
   I2  858.49770   0.9710144  
   I2  858.55770   0.9716164  
   I2  859.12180   0.9694564  
   I2  859.20680   0.9685475  
   I2  859.56590   0.9695061  
   I2  859.77120   0.9694337  
   I2  860.15410   0.9690467  
   I2  860.42110   0.9699028  
   I2  861.02190   0.9716298  
   I2  861.05740   0.9710050  
   I2  861.07410   0.9732317  
   I2  861.58800   0.9751455  
   I2  861.70870   0.9751109  
   I2  861.99850   0.9783649  
   I2  862.29320   0.9794852  
   I2  862.32960   0.9801897  
   I2  862.66230   0.9827588  
   I2  862.89970   0.9834653  
   I2  862.94750   0.9832924  
   I2  863.25810   0.9857723  
   I2  863.55510   0.9869002  
   I2  863.60200   0.9855812  
   I2  864.21220   0.9886376  
   I2  864.84920   0.9884770  
   I2  865.14410   0.9873321  
   I2  865.41270   0.9883444  
   I2  865.45110   0.9882144  
   I2  865.48320   0.9855930  
   I2  866.09620   0.9854502  
   I2  866.11390   0.9851341  
   I2  866.75730   0.9835861  
   I2  867.23950   0.9829755  
   I2  867.30370   0.9836164  
   I2  867.75170   0.9829131  
   I2  867.93090   0.9838676  
   I2  868.54910   0.9843669  
   I2  868.62170   0.9854184  
   I2  869.16940   0.9889276  
   I2  869.24300   0.9880370  
   I2  869.28460   0.9898910  
   I2  869.64780   0.9912116  
   I2  869.83480   0.9917712  
   I2  869.90650   0.9919319  
   I2  869.92190   0.9916342  
   I2  870.45090   0.9946440  
   I2  870.53010   0.9951911  
   I2  870.57170   0.9949706  
   I2  871.08710   0.9955803  
   I2  871.19770   0.9960444  
   I2  871.83810   0.9960165  
   I2  872.17150   0.9968555  
   I2  872.37580   0.9950166  
   I2  872.47810   0.9966740  
   I2  873.00850   0.9939554  
   I2  873.10100   0.9936697  
   I2  873.12170   0.9931249  
   I2  873.62520   0.9910066  
   I2  873.68030   0.9903183  
   I2  873.77080   0.9902727  
   I2  874.26690   0.9887015  
   I2  874.29620   0.9903723  
   I2  874.38040   0.9876360  
   I2  874.74780   0.9870148  
   I2  874.93950   0.9875753  
   I2  875.02280   0.9883167  
   I2  875.05450   0.9871224  
   I2  875.56190   0.9882084  
   I2  875.64060   0.9879485  
   I2  875.69500   0.9888506  
   I2  876.26080   0.9912906  
   I2  876.34260   0.9912327  
   I2  877.01660   0.9952226  
   I2  877.52180   0.9982240  
   I2  877.55880   0.9992732  
   I2  877.63580   0.9983727  
   I2  878.19900   0.9980870  
   I2  878.26430   0.9994330  
   I2  878.81960   1.0000000  
   I2  878.85080   0.9995309  
   I2  879.53070   0.9931893  
   I2  880.10440   0.9818079  
   I2  880.14900   0.9795586  
   I2  880.77370   0.9651402  
   I2  880.78510   0.9609534  
   I2  880.88340   0.9584341  
   I2  881.42570   0.9363403  
   I2  881.46760   0.9342611  
   I2  881.56360   0.9289366  
   I2  882.08300   0.9005173  
   I2  882.10820   0.8977631  
   I2  882.17830   0.8935145  
   I2  882.72820   0.8531082  
   I2  882.76650   0.8509096  
   I2  882.81820   0.8451397  
   I2  883.40990   0.7904869  
   I2  883.53220   0.7785503  
   I2  884.09430   0.7170614  
   I2  884.16450   0.7087326  
   I2  884.70410   0.6404024  
   I2  884.72000   0.6363950  
   I2  884.78010   0.6294406  
   I2  885.40790   0.5391340  
   I2  885.52290   0.5254563  
   I2  886.04060   0.4467089  
   I2  886.08010   0.4393056  
   I2  886.09560   0.4361944  
   I2  886.69810   0.3472963  
   I2  887.01790   0.3022295  
   I2  887.38660   0.2535996  
   I2  887.40670   0.2504229  
   I2  887.51460   0.2387186  
   I2  888.02320   0.1802664  
   I2  888.02420   0.1799787  
   I2  888.04750   0.1779330  
   I2  888.12590   0.1699234  
   I2  888.17720   0.1648701  
   I2  888.71600   0.1185026  
   I2  888.73660   0.1159005  
   I2  888.84640   0.1092663  
   I2  889.03250   0.0971426  
   I2  889.35810   0.0767765  
   I2  890.01590   0.0493514  
   I2  890.02980   0.0488055  
   I2  890.38120   0.0381333  
   I2  891.02700   0.0241999  
   I2  891.36510   0.0192695  
   I2  891.41900   0.0187351  
   I2  891.49700   0.0174999  
   I2  892.01680   0.0123093  
   I2  892.02060   0.0122380  
   I2  892.06200   0.0118330  
   I2  892.11480   0.0114556  
   I2  892.19410   0.0108168  
   I2  892.71850   0.0076584  
   I2  892.75950   0.0074298  
   I2  892.84340   0.0070476  
   I2  893.01200   0.0063905  
   I2  893.43080   0.0048724  
   I2  893.46070   0.0048972  
   I2  894.00040   0.0035627  
   I2  894.09750   0.0032185  
   I2  894.39600   0.0027731  
   I2  894.76850   0.0021676  
   I2  894.79610   0.0021489  
   I2  895.05500   0.0019955  
   I2  895.38860   0.0015309  
   I2  895.53170   0.0014317  
   I2  895.76310   0.0012814  
   I2  896.04420   0.0011880  
   I2  896.08910   0.0010663  
   I2  896.12220   0.0010786  
   I2  896.75910   0.0007783  
   I2  896.79040   0.0007508  
   I2  896.80520   0.0007706  
   I2  896.85390   0.0007049  
   I2  897.50010   0.0005050  
   I2  897.79270   0.0004656  
   I2  897.80280   0.0004907  
   I2  898.19890   0.0003631  
   I2  898.84590   0.0003199  
   I2  898.84760   0.0002913  
   I2  898.85130   0.0002800  
   I2  898.85460   0.0002740  
   I2  899.44680   0.0002257  
   I2  899.46420   0.0002152  
   I2  899.49870   0.0002251  
   I2  899.54850   0.0002413  
   I2  899.81700   0.0002042  
   I2  900.15920   0.0001894  
   I2  900.85390   0.0001239  
   I2  900.99480   0.0001384  
   I2  901.14150   0.0001046  
   I2  902.20020   0.0000867  
   I2  902.90920   0.0000606  
   I2  903.94570   0.0000344  
   I2  906.998   0.1000000E-09
   I2  913.004   0.1000000E-09
   I2  918.993   0.1000000E-09
   I2  925.002   0.1000000E-09
   I2  931.000   0.1000000E-09
   I2  936.507   0.1000000E-09
   I2  942.001   0.1000000E-09
   I2  947.500   0.1000000E-09
   I2  953.002   0.1000000E-09
   I2  958.505   0.1000000E-09
   I2  964.000   0.1000000E-09
   I2  969.504   0.1000000E-09
   I2  975.006   0.1000000E-09
   I2  980.503   0.1000000E-09
   I2  985.998   0.1000000E-09
   I2  991.500   0.1000000E-09
   I2  996.994   0.1000000E-09
   I2 1002.500   0.1000000E-09
   I2 1007.990   0.1000000E-09
   I2 1013.500   0.1000000E-09
   I2 1019.000   0.1000000E-09
   I2 1024.510   0.1000000E-09
   I2 1030.005   0.1000000E-09
   I2 1035.500   0.1000000E-09
   I2 1041.000   0.1000000E-09
   I2 1046.495   0.1000000E-09
   I2 1052.005   0.1000000E-09
   I2 1057.505   0.1000000E-09
   I2 1062.995   0.1000000E-09
   I2 1068.505   0.1000000E-09
   I2 1073.995   0.1000000E-09
   I2 1079.500   0.1000000E-09
   I2 1085.000   0.1000000E-09
   I2 1090.495   0.1000000E-09
   I2 1096.010   0.1000000E-09
   I2 1101.495   0.1000000E-09
