%DAWG J1 VIIRS Band Average "Fused" RSR Release V2 Band M6
%Based upon VCST PR2.11 Set 5.1 analysis (TSIRCUS) and DAWG V1 release (SpMA)
%Using J1 VIIRS FP-15,-16 RSR Measurements at Raytheon El Segundo, July - October 2015 and TSIRCUS RSR measurements December 2015
%Band   wvl_nm        RSR
   M6  349.002   0.1000000E-09
   M6  354.500   0.1000000E-09
   M6  360.000   0.1000000E-09
   M6  365.502   0.1000000E-09
   M6  371.000   0.1000000E-09
   M6  376.503   0.1000000E-09
   M6  382.012   0.1000000E-09
   M6  387.508   0.1000000E-09
   M6  393.003   0.1000000E-09
   M6  398.510   0.1000000E-09
   M6  398.74940   0.0000107  
   M6  399.24350   0.0000114  
   M6  399.73520   0.0000173  
   M6  400.22200   0.0000211  
   M6  400.68620   0.0000229  
   M6  401.13010   0.0000310  
   M6  401.58580   0.0000334  
   M6  402.00020   0.0000334  
   M6  402.44120   0.0000357  
   M6  402.88230   0.0000382  
   M6  403.27790   0.0000337  
   M6  403.75630   0.0000348  
   M6  404.24510   0.0000355  
   M6  404.85280   0.0000443  
   M6  405.37820   0.0000432  
   M6  405.94380   0.0000458  
   M6  406.47770   0.0000480  
   M6  406.98840   0.0000494  
   M6  407.53910   0.0000487  
   M6  408.80730   0.0000550  
   M6  409.42770   0.0000542  
   M6  410.08790   0.0000542  
   M6  410.55700   0.0000561  
   M6  411.03790   0.0000539  
   M6  411.97430   0.0000645  
   M6  412.44700   0.0000601  
   M6  412.92350   0.0000606  
   M6  413.38620   0.0000610  
   M6  413.86660   0.0000633  
   M6  414.30750   0.0000715  
   M6  414.76390   0.0000609  
   M6  416.96720   0.0000636  
   M6  417.23470   0.0000614  
   M6  417.49810   0.0000589  
   M6  417.72410   0.0000594  
   M6  417.94980   0.0000597  
   M6  418.16570   0.0000564  
   M6  418.38580   0.0000488  
   M6  418.83740   0.0000441  
   M6  419.12580   0.0000432  
   M6  419.37110   0.0000413  
   M6  419.67600   0.0000365  
   M6  419.99900   0.0000296  
   M6  420.26780   0.0000201  
   M6  420.53050   0.0000171  
   M6  420.73400   0.0000202  
   M6  420.99230   0.0000141  
   M6  426.005   0.1000000E-09
   M6  431.21900   0.0000123  
   M6  435.18550   0.0000148  
   M6  435.75510   0.0000154  
   M6  436.34920   0.0000189  
   M6  436.99240   0.0000252  
   M6  437.61010   0.0000294  
   M6  438.24770   0.0000331  
   M6  438.86450   0.0000343  
   M6  439.42590   0.0000356  
   M6  439.94070   0.0000393  
   M6  440.44790   0.0000372  
   M6  440.95950   0.0000319  
   M6  441.47570   0.0000330  
   M6  442.01060   0.0000300  
   M6  442.49060   0.0000289  
   M6  442.96130   0.0000281  
   M6  443.45820   0.0000290  
   M6  443.90380   0.0000318  
   M6  444.30030   0.0000283  
   M6  444.72730   0.0000325  
   M6  445.17290   0.0000284  
   M6  445.62360   0.0000323  
   M6  446.04010   0.0000304  
   M6  446.53780   0.0000287  
   M6  447.63000   0.0000234  
   M6  448.16320   0.0000260  
   M6  448.69490   0.0000344  
   M6  449.19850   0.0000262  
   M6  449.77900   0.0000374  
   M6  450.32410   0.0000280  
   M6  450.92730   0.0000356  
   M6  451.44280   0.0000267  
   M6  452.01420   0.0000245  
   M6  452.59140   0.0000259  
   M6  453.75630   0.0000172  
   M6  458.999   0.1000000E-09
   M6  464.500   0.1000000E-09
   M6  469.999   0.1000000E-09
   M6  475.499   0.1000000E-09
   M6  481.008   0.1000000E-09
   M6  486.503   0.1000000E-09
   M6  492.009   0.1000000E-09
   M6  497.498   0.1000000E-09
   M6  503.005   0.1000000E-09
   M6  508.498   0.1000000E-09
   M6  514.000   0.1000000E-09
   M6  519.511   0.1000000E-09
   M6  525.009   0.1000000E-09
   M6  530.494   0.1000000E-09
   M6  536.003   0.1000000E-09
   M6  541.501   0.1000000E-09
   M6  545.54940   0.0000326  
   M6  545.61230   0.0000401  
   M6  545.68320   0.0000354  
   M6  545.76240   0.0000358  
   M6  546.05900   0.0000293  
   M6  546.10220   0.0000318  
   M6  546.20740   0.0000431  
   M6  546.56580   0.0000571  
   M6  546.61610   0.0000403  
   M6  546.62290   0.0000433  
   M6  546.88710   0.0000563  
   M6  546.93450   0.0000348  
   M6  547.56130   0.0000668  
   M6  547.75450   0.0000625  
   M6  547.88420   0.0000694  
   M6  547.91330   0.0000798  
   M6  549.02460   0.0000936  
   M6  549.38410   0.0001128  
   M6  549.64590   0.0000994  
   M6  550.20360   0.0001077  
   M6  551.15330   0.0001201  
   M6  551.44780   0.0001290  
   M6  551.58690   0.0001229  
   M6  551.91470   0.0001244  
   M6  551.95350   0.0001166  
   M6  552.44960   0.0001159  
   M6  552.61460   0.0001213  
   M6  553.33430   0.0001128  
   M6  553.55810   0.0001247  
   M6  554.02180   0.0001205  
   M6  554.31090   0.0001222  
   M6  554.61060   0.0001243  
   M6  554.81090   0.0001165  
   M6  554.96260   0.0001009  
   M6  555.07020   0.0001153  
   M6  555.43330   0.0001175  
   M6  555.45070   0.0001085  
   M6  555.67350   0.0001183  
   M6  555.78240   0.0001217  
   M6  556.02780   0.0001142  
   M6  556.15130   0.0001093  
   M6  556.36930   0.0001141  
   M6  556.54930   0.0001105  
   M6  556.91120   0.0001105  
   M6  557.02010   0.0001168  
   M6  557.34250   0.0001189  
   M6  557.50440   0.0001207  
   M6  557.84100   0.0001210  
   M6  557.84520   0.0001233  
   M6  558.06280   0.0001256  
   M6  558.29920   0.0001133  
   M6  558.65070   0.0001253  
   M6  558.74070   0.0001187  
   M6  558.94770   0.0001113  
   M6  559.36070   0.0001151  
   M6  559.94740   0.0000999  
   M6  559.95650   0.0001092  
   M6  560.11960   0.0001009  
   M6  560.97040   0.0001055  
   M6  561.33320   0.0001055  
   M6  561.52590   0.0001084  
   M6  562.86180   0.0000893  
   M6  563.07220   0.0000875  
   M6  563.24000   0.0000925  
   M6  563.40810   0.0000881  
   M6  563.57480   0.0000862  
   M6  563.74320   0.0000932  
   M6  563.91090   0.0000734  
   M6  564.08070   0.0000837  
   M6  564.24830   0.0000684  
   M6  564.41810   0.0000622  
   M6  564.58720   0.0000675  
   M6  564.75520   0.0000540  
   M6  564.92320   0.0000615  
   M6  565.09220   0.0000630  
   M6  565.25870   0.0000644  
   M6  565.42630   0.0000557  
   M6  565.60070   0.0000542  
   M6  565.76940   0.0000434  
   M6  565.93730   0.0000448  
   M6  566.10530   0.0000364  
   M6  566.27600   0.0000423  
   M6  566.61360   0.0000439  
   M6  566.78320   0.0000414  
   M6  566.95510   0.0000455  
   M6  567.12480   0.0000327  
   M6  567.29680   0.0000375  
   M6  567.77490   0.0000317  
   M6  567.94190   0.0000283  
   M6  568.11130   0.0000312  
   M6  568.27910   0.0000324  
   M6  568.44800   0.0000304  
   M6  568.61690   0.0000249  
   M6  568.78810   0.0000215  
   M6  568.95820   0.0000212  
   M6  569.12850   0.0000205  
   M6  569.46910   0.0000205  
   M6  569.63900   0.0000213  
   M6  574.495   0.1000000E-09
   M6  580.009   0.1000000E-09
   M6  585.504   0.1000000E-09
   M6  591.003   0.1000000E-09
   M6  596.497   0.1000000E-09
   M6  601.997   0.1000000E-09
   M6  607.504   0.1000000E-09
   M6  613.001   0.1000000E-09
   M6  618.504   0.1000000E-09
   M6  624.000   0.1000000E-09
   M6  629.496   0.1000000E-09
   M6  634.990   0.1000000E-09
   M6  640.506   0.1000000E-09
   M6  646.005   0.1000000E-09
   M6  651.496   0.1000000E-09
   M6  654.24150   0.0000213  
   M6  656.11520   0.0000302  
   M6  657.05490   0.0000347  
   M6  657.99780   0.0000420  
   M6  658.94940   0.0000533  
   M6  659.89900   0.0000601  
   M6  660.84480   0.0000593  
   M6  661.79560   0.0000703  
   M6  662.74120   0.0000657  
   M6  663.69640   0.0000680  
   M6  664.64870   0.0000612  
   M6  665.61060   0.0000612  
   M6  666.57060   0.0000550  
   M6  667.53440   0.0000671  
   M6  668.50520   0.0000619  
   M6  669.47280   0.0000664  
   M6  670.43400   0.0000619  
   M6  671.40120   0.0000730  
   M6  672.36680   0.0000693  
   M6  673.33220   0.0000738  
   M6  674.30480   0.0000655  
   M6  675.28050   0.0000532  
   M6  676.25480   0.0000418  
   M6  677.23290   0.0000452  
   M6  679.18680   0.0000336  
   M6  679.99930   0.0000193  
   M6  680.15970   0.0000273  
   M6  680.18670   0.0000205  
   M6  680.37500   0.0000205  
   M6  680.56420   0.0000199  
   M6  680.75240   0.0000151  
   M6  680.94110   0.0000212  
   M6  681.12980   0.0000245  
   M6  681.13830   0.0000263  
   M6  681.31890   0.0000153  
   M6  681.50780   0.0000155  
   M6  681.74200   0.0000135  
   M6  681.93210   0.0000149  
   M6  682.10710   0.0000154  
   M6  682.31110   0.0000163  
   M6  682.49970   0.0000129  
   M6  682.69050   0.0000158  
   M6  682.87880   0.0000191  
   M6  683.11590   0.0000131  
   M6  683.29820   0.0000136  
   M6  683.49540   0.0000151  
   M6  683.68480   0.0000190  
   M6  683.87590   0.0000146  
   M6  684.06540   0.0000139  
   M6  684.25620   0.0000135  
   M6  684.48930   0.0000111  
   M6  684.67800   0.0000136  
   M6  684.87380   0.0000127  
   M6  685.06270   0.0000136  
   M6  685.25550   0.0000120  
   M6  685.44480   0.0000150  
   M6  685.63760   0.0000121  
   M6  685.82690   0.0000120  
   M6  686.03350   0.0000122  
   M6  686.44900   0.0000124  
   M6  686.63940   0.0000118  
   M6  686.83410   0.0000105  
   M6  687.02320   0.0000116  
   M6  687.30970   0.0000104  
   M6  687.40710   0.0000115  
   M6  687.69330   0.0000129  
   M6  688.22320   0.0000104  
   M6  688.49020   0.0000113  
   M6  688.60870   0.0000102  
   M6  689.38100   0.0000093  
   M6  689.71730   0.0000132  
   M6  690.20290   0.0000105  
   M6  690.39470   0.0000125  
   M6  691.21980   0.0000090  
   M6  693.12040   0.0000109  
   M6  694.24610   0.0000095  
   M6  695.03050   0.0000117  
   M6  696.05910   0.0000110  
   M6  696.45820   0.0000115  
   M6  697.24650   0.0000115  
   M6  697.44490   0.0000096  
   M6  697.65220   0.0000127  
   M6  697.88930   0.0000159  
   M6  698.08650   0.0000134  
   M6  698.28600   0.0000108  
   M6  698.48340   0.0000133  
   M6  698.68300   0.0000146  
   M6  698.88030   0.0000114  
   M6  699.07980   0.0000118  
   M6  699.32640   0.0000144  
   M6  699.52460   0.0000134  
   M6  699.72440   0.0000177  
   M6  699.92270   0.0000157  
   M6  700.12270   0.0000186  
   M6  700.32140   0.0000208  
   M6  700.52230   0.0000193  
   M6  700.65790   0.0000184  
   M6  700.72090   0.0000200  
   M6  700.92110   0.0000143  
   M6  701.16960   0.0000182  
   M6  701.37080   0.0000183  
   M6  701.48680   0.0000197  
   M6  701.57030   0.0000212  
   M6  701.77190   0.0000225  
   M6  701.97150   0.0000208  
   M6  702.17320   0.0000194  
   M6  702.32830   0.0000222  
   M6  702.37330   0.0000191  
   M6  702.48830   0.0000202  
   M6  702.82510   0.0000212  
   M6  702.87600   0.0000224  
   M6  703.16700   0.0000223  
   M6  704.00990   0.0000235  
   M6  705.67410   0.0000277  
   M6  706.52650   0.0000300  
   M6  707.62440   0.0000348  
   M6  708.46140   0.0000392  
   M6  709.30750   0.0000438  
   M6  710.15610   0.0000462  
   M6  711.00790   0.0000480  
   M6  711.86230   0.0000505  
   M6  712.71380   0.0000536  
   M6  713.69990   0.0000608  
   M6  714.55990   0.0000664  
   M6  715.42260   0.0000748  
   M6  716.29210   0.0000849  
   M6  717.16200   0.0000983  
   M6  718.03800   0.0001180  
   M6  718.91400   0.0001455  
   M6  719.76110   0.0001784  
   M6  720.88280   0.0002354  
   M6  721.78270   0.0002899  
   M6  722.67080   0.0003520  
   M6  723.58270   0.0004215  
   M6  724.54150   0.0005035  
   M6  725.45580   0.0005905  
   M6  726.35360   0.0006881  
   M6  727.25020   0.0007981  
   M6  728.14760   0.0009320  
   M6  729.07480   0.0011021  
   M6  729.15290   0.0010973  
   M6  729.29870   0.0011606  
   M6  729.41160   0.0011670  
   M6  729.45100   0.0011793  
   M6  729.86880   0.0012874  
   M6  730.01370   0.0013102  
   M6  730.05350   0.0013444  
   M6  730.45990   0.0014771  
   M6  730.77700   0.0016258  
   M6  730.84820   0.0016875  
   M6  731.11440   0.0018730  
   M6  731.21200   0.0019127  
   M6  731.37880   0.0019818  
   M6  731.56990   0.0021777  
   M6  731.78140   0.0022965  
   M6  732.02420   0.0027167  
   M6  732.13620   0.0027972  
   M6  732.28670   0.0029504  
   M6  732.55630   0.0034560  
   M6  733.01320   0.0044314  
   M6  733.44840   0.0058627  
   M6  733.60320   0.0065376  
   M6  734.03920   0.0085987  
   M6  734.04040   0.0091326  
   M6  734.36460   0.0113743  
   M6  734.38340   0.0117576  
   M6  734.57620   0.0131471  
   M6  734.81470   0.0166260  
   M6  734.93920   0.0173621  
   M6  735.28600   0.0242379  
   M6  735.64800   0.0331451  
   M6  735.86350   0.0385849  
   M6  736.09020   0.0485595  
   M6  736.18780   0.0533295  
   M6  736.30290   0.0577402  
   M6  736.62940   0.0753607  
   M6  736.65090   0.0775255  
   M6  736.76340   0.0850749  
   M6  737.09020   0.1097711  
   M6  737.11080   0.1135337  
   M6  737.55260   0.1554285  
   M6  737.58930   0.1604412  
   M6  737.91770   0.2023015  
   M6  738.01510   0.2160930  
   M6  738.09450   0.2283077  
   M6  738.36120   0.2737737  
   M6  738.47790   0.2904296  
   M6  738.57670   0.3070879  
   M6  738.90710   0.3700294  
   M6  738.92720   0.3743939  
   M6  739.40740   0.4744013  
   M6  739.50620   0.4950100  
   M6  740.20230   0.6476501  
   M6  740.30320   0.6703346  
   M6  740.39910   0.6841719  
   M6  740.86590   0.7845054  
   M6  741.23540   0.8485580  
   M6  741.33560   0.8637917  
   M6  741.68210   0.9100006  
   M6  741.70180   0.9118913  
   M6  742.14830   0.9544636  
   M6  742.60380   0.9780818  
   M6  742.69860   0.9826679  
   M6  742.97180   0.9893647  
   M6  743.07110   0.9917387  
   M6  743.16780   0.9926431  
   M6  743.52160   0.9952994  
   M6  743.55770   0.9957443  
   M6  743.99160   0.9949366  
   M6  744.46120   0.9954762  
   M6  744.48140   0.9953750  
   M6  744.83420   0.9956892  
   M6  744.97070   0.9960853  
   M6  745.30710   0.9967327  
   M6  745.40320   0.9964904  
   M6  745.87700   0.9991246  
   M6  745.97570   0.9990902  
   M6  746.35060   0.9993109  
   M6  746.44880   1.0000000  
   M6  746.82460   0.9994010  
   M6  746.92390   0.9993568  
   M6  747.28130   0.9978827  
   M6  747.73530   0.9926893  
   M6  748.13000   0.9882418  
   M6  748.20990   0.9850974  
   M6  748.31070   0.9840338  
   M6  748.68840   0.9771415  
   M6  749.60340   0.9488507  
   M6  749.72180   0.9431659  
   M6  750.21860   0.9181343  
   M6  750.57980   0.8907578  
   M6  750.99850   0.8534494  
   M6  751.03800   0.8474955  
   M6  751.07910   0.8422184  
   M6  751.51860   0.7846032  
   M6  751.96070   0.7117490  
   M6  752.00020   0.7032062  
   M6  752.08080   0.6858452  
   M6  752.44110   0.6148404  
   M6  752.48180   0.6029747  
   M6  752.96280   0.4943613  
   M6  753.04360   0.4745704  
   M6  753.40660   0.3935142  
   M6  753.42750   0.3844431  
   M6  754.31260   0.2163598  
   M6  754.37130   0.2045543  
   M6  754.41220   0.1972041  
   M6  754.85650   0.1392822  
   M6  754.90510   0.1338136  
   M6  755.34060   0.0939017  
   M6  755.76810   0.0659239  
   M6  756.58050   0.0390880  
   M6  756.78190   0.0285848  
   M6  757.16770   0.0214472  
   M6  757.22980   0.0202353  
   M6  757.67290   0.0148576  
   M6  757.71770   0.0141134  
   M6  757.75990   0.0137428  
   M6  758.20740   0.0100242  
   M6  758.26720   0.0096633  
   M6  758.65620   0.0075363  
   M6  758.71520   0.0072865  
   M6  758.75590   0.0069443  
   M6  759.00280   0.0059529  
   M6  759.14410   0.0054505  
   M6  759.18800   0.0052943  
   M6  759.24710   0.0050881  
   M6  759.59880   0.0040867  
   M6  759.69370   0.0038938  
   M6  760.12370   0.0030404  
   M6  760.13550   0.0030314  
   M6  760.20610   0.0029330  
   M6  760.28790   0.0027817  
   M6  760.61480   0.0023308  
   M6  760.72460   0.0021968  
   M6  761.11120   0.0018155  
   M6  761.15020   0.0017773  
   M6  761.16920   0.0017837  
   M6  761.54580   0.0014634  
   M6  761.58340   0.0014522  
   M6  761.66450   0.0013901  
   M6  762.03600   0.0011842  
   M6  762.05980   0.0011600  
   M6  762.14270   0.0011237  
   M6  762.17720   0.0011210  
   M6  762.52980   0.0009601  
   M6  762.57650   0.0009380  
   M6  762.63460   0.0009094  
   M6  763.00810   0.0007861  
   M6  763.37610   0.0006800  
   M6  763.47960   0.0006506  
   M6  763.56770   0.0006307  
   M6  763.58680   0.0006291  
   M6  764.01700   0.0005359  
   M6  764.12370   0.0005191  
   M6  764.36620   0.0004737  
   M6  764.57650   0.0004453  
   M6  764.62010   0.0004392  
   M6  765.07680   0.0003750  
   M6  765.34950   0.0003396  
   M6  765.47520   0.0003276  
   M6  766.36070   0.0002495  
   M6  767.57510   0.0001760  
   M6  768.57580   0.0001351  
   M6  769.57360   0.0001021  
   M6  770.79990   0.0000733  
   M6  771.81950   0.0000557  
   M6  772.81610   0.0000425  
   M6  773.84590   0.0000325  
   M6  775.08420   0.0000242  
   M6  776.10720   0.0000177  
   M6  777.35080   0.0000144  
   M6  778.38000   0.0000119  
   M6  779.41020   0.0000095  
   M6  780.44420   0.0000090  
   M6  781.72050   0.0000076  
   M6  782.75080   0.0000062  
   M6  783.90350   0.0000051  
   M6  785.05830   0.0000055  
   M6  786.12380   0.0000054  
   M6  787.16430   0.0000048  
   M6  788.44420   0.0000036  
   M6  789.52030   0.0000040  
   M6  791.85500   0.0000040  
   M6  792.91710   0.0000033  
   M6  794.02040   0.0000031  
   M6  795.27860   0.0000035  
   M6  796.39000   0.0000030  
   M6  801.502   0.1000000E-09
   M6  807.000   0.1000000E-09
   M6  812.503   0.1000000E-09
   M6  817.990   0.1000000E-09
   M6  823.497   0.1000000E-09
   M6  828.996   0.1000000E-09
   M6  834.503   0.1000000E-09
   M6  840.004   0.1000000E-09
   M6  842.67000   0.0000035  
   M6  843.58320   0.0000048  
   M6  844.47330   0.0000090  
   M6  845.39880   0.0000156  
   M6  845.66560   0.0000209  
   M6  845.71440   0.0000208  
   M6  846.01440   0.0000192  
   M6  846.05130   0.0000228  
   M6  846.28800   0.0000279  
   M6  846.29930   0.0000319  
   M6  846.32150   0.0000259  
   M6  846.67820   0.0000325  
   M6  846.89250   0.0000398  
   M6  846.93400   0.0000403  
   M6  847.47010   0.0000480  
   M6  847.49590   0.0000482  
   M6  847.85690   0.0000568  
   M6  848.13220   0.0000684  
   M6  848.16130   0.0000731  
   M6  848.39300   0.0000708  
   M6  848.72180   0.0000860  
   M6  848.76830   0.0000923  
   M6  849.08650   0.0000977  
   M6  849.31630   0.0001114  
   M6  849.36020   0.0001143  
   M6  849.69630   0.0001201  
   M6  849.91450   0.0001250  
   M6  849.95570   0.0001267  
   M6  850.00070   0.0001282  
   M6  850.54450   0.0001476  
   M6  850.61040   0.0001478  
   M6  851.11930   0.0001614  
   M6  851.16240   0.0001598  
   M6  851.20750   0.0001612  
   M6  851.54740   0.0001679  
   M6  851.75840   0.0001684  
   M6  851.80200   0.0001719  
   M6  852.34780   0.0001743  
   M6  852.39880   0.0001772  
   M6  853.01510   0.0001788  
   M6  853.58740   0.0001815  
   M6  853.61100   0.0001812  
   M6  853.65840   0.0001811  
   M6  854.22750   0.0001794  
   M6  854.23160   0.0001821  
   M6  854.83600   0.0001826  
   M6  854.87640   0.0001823  
   M6  855.48260   0.0001833  
   M6  855.79050   0.0001850  
   M6  856.02300   0.0001862  
   M6  856.07300   0.0001822  
   M6  856.10110   0.0001831  
   M6  856.59760   0.0001873  
   M6  857.04460   0.0001857  
   M6  857.29960   0.0001862  
   M6  857.33780   0.0001836  
   M6  857.68570   0.0001819  
   M6  857.90760   0.0001860  
   M6  858.49770   0.0001840  
   M6  858.55770   0.0001878  
   M6  859.12180   0.0001849  
   M6  859.20680   0.0001848  
   M6  859.56590   0.0001832  
   M6  859.77120   0.0001867  
   M6  860.15410   0.0001816  
   M6  860.42110   0.0001813  
   M6  861.02190   0.0001854  
   M6  861.05740   0.0001866  
   M6  861.07410   0.0001848  
   M6  861.58800   0.0001864  
   M6  861.70870   0.0001852  
   M6  861.99850   0.0001889  
   M6  862.29320   0.0001847  
   M6  862.32960   0.0001882  
   M6  862.66230   0.0001856  
   M6  862.89970   0.0001908  
   M6  862.94750   0.0001880  
   M6  863.25810   0.0001917  
   M6  863.55510   0.0001910  
   M6  863.60200   0.0001871  
   M6  864.21220   0.0001931  
   M6  864.84920   0.0001858  
   M6  865.14410   0.0001903  
   M6  865.41270   0.0001877  
   M6  865.45110   0.0001897  
   M6  865.48320   0.0001859  
   M6  866.09620   0.0001871  
   M6  866.11390   0.0001892  
   M6  866.75730   0.0001875  
   M6  867.23950   0.0001886  
   M6  867.30370   0.0001881  
   M6  867.75170   0.0001873  
   M6  867.93090   0.0001882  
   M6  868.54910   0.0001894  
   M6  868.62170   0.0001885  
   M6  869.16940   0.0001906  
   M6  869.24300   0.0001863  
   M6  869.28460   0.0001880  
   M6  869.64780   0.0001884  
   M6  869.83480   0.0001929  
   M6  869.90650   0.0001911  
   M6  869.92190   0.0001877  
   M6  870.45090   0.0001911  
   M6  870.53010   0.0001900  
   M6  870.57170   0.0001868  
   M6  871.08710   0.0001891  
   M6  871.19770   0.0001924  
   M6  871.83810   0.0001907  
   M6  872.17150   0.0001908  
   M6  872.37580   0.0001882  
   M6  872.47810   0.0001918  
   M6  873.00850   0.0001936  
   M6  873.10100   0.0001929  
   M6  873.12170   0.0001891  
   M6  873.62520   0.0001914  
   M6  873.68030   0.0001912  
   M6  873.77080   0.0001903  
   M6  874.26690   0.0001883  
   M6  874.29620   0.0001914  
   M6  874.38040   0.0001897  
   M6  874.74780   0.0001868  
   M6  874.93950   0.0001897  
   M6  875.02280   0.0001879  
   M6  875.05450   0.0001880  
   M6  875.56190   0.0001901  
   M6  875.64060   0.0001904  
   M6  875.69500   0.0001871  
   M6  876.26080   0.0001861  
   M6  876.34260   0.0001916  
   M6  877.01660   0.0001892  
   M6  877.52180   0.0001900  
   M6  877.55880   0.0001914  
   M6  877.63580   0.0001906  
   M6  878.19900   0.0001931  
   M6  878.26430   0.0001860  
   M6  878.81960   0.0001925  
   M6  878.85080   0.0001908  
   M6  879.53070   0.0001899  
   M6  880.10440   0.0001900  
   M6  880.14900   0.0001924  
   M6  880.77370   0.0001896  
   M6  880.78510   0.0001901  
   M6  880.88340   0.0001871  
   M6  881.42570   0.0001870  
   M6  881.46760   0.0001839  
   M6  881.56360   0.0001817  
   M6  882.08300   0.0001765  
   M6  882.10820   0.0001778  
   M6  882.17830   0.0001782  
   M6  882.72820   0.0001700  
   M6  882.76650   0.0001677  
   M6  882.81820   0.0001689  
   M6  883.40990   0.0001613  
   M6  883.53220   0.0001546  
   M6  884.09430   0.0001440  
   M6  884.16450   0.0001416  
   M6  884.70410   0.0001261  
   M6  884.72000   0.0001293  
   M6  884.78010   0.0001273  
   M6  885.40790   0.0001046  
   M6  885.52290   0.0001041  
   M6  886.04060   0.0000788  
   M6  886.08010   0.0000878  
   M6  886.09560   0.0000890  
   M6  886.69810   0.0000723  
   M6  887.01790   0.0000596  
   M6  887.38660   0.0000577  
   M6  887.40670   0.0000578  
   M6  887.51460   0.0000475  
   M6  888.02320   0.0000389  
   M6  888.02420   0.0000383  
   M6  888.04750   0.0000412  
   M6  888.12590   0.0000387  
   M6  888.17720   0.0000401  
   M6  888.71600   0.0000297  
   M6  888.73660   0.0000305  
   M6  888.84640   0.0000243  
   M6  889.03250   0.0000245  
   M6  889.35810   0.0000209  
   M6  890.01590   0.0000128  
   M6  891.02700   0.0000088  
   M6  892.01680   0.0000064  
   M6  893.01200   0.0000058  
   M6  894.00040   0.0000046  
   M6  896.80520   0.0000051  
   M6  897.80280   0.0000058  
   M6  898.84760   0.0000061  
   M6  899.44680   0.0000048  
   M6  900.15920   0.0000062  
   M6  901.14150   0.0000072  
   M6  902.20020   0.0000075  
   M6  902.90920   0.0000080  
   M6  903.94570   0.0000079  
   M6  904.98720   0.0000079  
   M6  906.00910   0.0000082  
   M6  907.05140   0.0000079  
   M6  908.08130   0.0000081  
   M6  909.10960   0.0000083  
   M6  909.87910   0.0000076  
   M6  910.88560   0.0000071  
   M6  911.95310   0.0000077  
   M6  912.95120   0.0000090  
   M6  914.00430   0.0000083  
   M6  914.76230   0.0000085  
   M6  915.80260   0.0000092  
   M6  916.84370   0.0000113  
   M6  917.91160   0.0000124  
   M6  918.98450   0.0000129  
   M6  919.72720   0.0000110  
   M6  920.75170   0.0000144  
   M6  921.85150   0.0000136  
   M6  922.90640   0.0000144  
   M6  923.96970   0.0000150  
   M6  925.80580   0.0000127  
   M6  926.88140   0.0000122  
   M6  927.65550   0.0000115  
   M6  929.84950   0.0000105  
   M6  930.87230   0.0000100  
   M6  932.00150   0.0000086  
   M6  932.82810   0.0000093  
   M6  936.02660   0.0000080  
   M6  936.80570   0.0000082  
   M6  937.91800   0.0000086  
   M6  938.99980   0.0000071  
   M6  940.09810   0.0000078  
   M6  941.98680   0.0000094  
   M6  943.16620   0.0000100  
   M6  943.93700   0.0000099  
   M6  945.08650   0.0000085  
   M6  946.23350   0.0000119  
   M6  947.20830   0.0000101  
   M6  948.36070   0.0000120  
   M6  949.21460   0.0000110  
   M6  950.30330   0.0000104  
   M6  951.41710   0.0000108  
   M6  953.39470   0.0000087  
   M6  954.52730   0.0000108  
   M6  955.56750   0.0000117  
   M6  956.76650   0.0000112  
   M6  957.54060   0.0000106  
   M6  958.67850   0.0000108  
   M6  959.57670   0.0000177  
   M6  960.69930   0.0000193  
   M6  961.77190   0.0000239  
   M6  962.96220   0.0000326  
   M6  963.81870   0.0000465  
   M6  964.92300   0.0000631  
   M6  966.92010   0.0001007  
   M6  968.12750   0.0000861  
   M6  969.26320   0.0000652  
   M6  970.07740   0.0000498  
   M6  971.24300   0.0000330  
   M6  972.10030   0.0000263  
   M6  973.26340   0.0000204  
   M6  974.45290   0.0000163  
   M6  977.62490   0.0000141  
   M6  982.995   0.4884125E-05
   M6  988.501   0.4033625E-05
   M6  993.999   0.4608964E-05
   M6  999.501   0.5421942E-05
   M6 1004.995   0.5234331E-05
   M6 1010.495   0.5359404E-05
   M6 1016.000   0.5659582E-05
   M6 1021.495   0.5509494E-05
   M6 1027.005   0.5384420E-05
   M6 1032.495   0.4927902E-05
   M6 1038.000   0.4621471E-05
   M6 1043.505   0.1055622E-04
   M6 1048.990   0.4390085E-05
   M6 1054.495   0.4102415E-05
   M6 1059.995   0.3539584E-05
   M6 1065.505   0.2370146E-05
   M6 1071.000   0.1000000E-09
   M6 1076.500   0.1919880E-05
   M6 1082.005   0.1000000E-09
   M6 1087.490   0.1000000E-09
   M6 1093.005   0.1000000E-09
   M6 1098.495   0.1000000E-09
   M6 1104.010   0.1000000E-09
