#DAWG J1 VIIRS Band Average RSR Release V1 Band M11
#Based upon VCST PR1.4 RSR Analysis
#Using J1 VIIRS FP-15,-16 RSR Measurements at Raytheon El Segundo, July - October 2015
#Detector numbering in Raytheon Sensor Order
#Band     wvl_nm        RSR
 M11      993.979   0.1000000E-09
 M11     1008.995   0.1000000E-09
 M11     1024.000   0.1000000E-09
 M11     1038.995   0.1000000E-09
 M11     1054.005   0.1000000E-09
 M11     1069.010   0.1000000E-09
 M11     1083.990   0.1000000E-09
 M11     1099.015   0.1000000E-09
 M11     1114.010   0.1000000E-09
 M11     1129.010   0.1000000E-09
 M11     1144.000   0.1000000E-09
 M11     1158.990   0.1000000E-09
 M11     1173.970   0.1000000E-09
 M11     1189.005   0.1000000E-09
 M11     1204.005   0.1000000E-09
 M11     1219.010   0.1000000E-09
 M11     1234.000   0.1000000E-09
 M11     1249.000   0.1000000E-09
 M11     1264.000   0.1000000E-09
 M11     1279.010   0.1000000E-09
 M11     1294.010   0.1000000E-09
 M11     1308.995   0.1000000E-09
 M11     1324.010   0.1000000E-09
 M11     1338.980   0.1000000E-09
 M11     1354.005   0.1000000E-09
 M11     1368.985   0.1000000E-09
 M11     1384.010   0.1000000E-09
 M11     1399.000   0.1000000E-09
 M11     1413.980   0.1000000E-09
 M11     1429.000   0.1000000E-09
 M11     1444.010   0.1000000E-09
 M11     1459.005   0.1000000E-09
 M11     1474.015   0.1000000E-09
 M11     1489.025   0.6269996E-07
 M11     1503.985   0.7523995E-07
 M11     1519.005   0.5015997E-07
 M11     1534.015   0.6269995E-07
 M11     1548.990   0.8777994E-07
 M11     1563.990   0.1065899E-06
 M11     1578.995   0.2633398E-06
 M11     1593.990   0.2257199E-06
 M11     1608.995   0.2445298E-06
 M11     1623.995   0.3009598E-06
 M11     1639.005   0.1630199E-06
 M11     1654.005   0.1316699E-06
 M11     1669.015   0.2257198E-06
 M11     1684.000   0.1630199E-06
 M11     1698.990   0.1128599E-06
 M11     1713.985   0.9404993E-07
 M11     1729.010   0.8150995E-07
 M11     1743.995   0.6269995E-07
 M11     1759.000   0.1003199E-06
 M11     1774.005   0.7523995E-07
 M11     1789.020   0.1128599E-06
 M11     1804.005   0.1504799E-06
 M11     1818.990   0.1379399E-06
 M11     1834.005   0.1000000E-09
 M11     1849.000   0.1000000E-09
 M11     1864.015   0.1000000E-09
 M11     1878.995   0.1000000E-09
 M11     1894.000   0.1000000E-09
 M11     1909.000   0.1000000E-09
 M11     1924.000   0.1000000E-09
 M11     1939.015   0.1000000E-09
 M11     1953.995   0.1000000E-09
 M11     1968.995   0.1000000E-09
 M11     1984.005   0.1000000E-09
 M11     1999.005   0.1000000E-09
 M11     2014.005   0.1000000E-09
 M11     2029.000   0.1000000E-09
 M11     2043.995   0.1000000E-09
 M11     2059.010   0.1000000E-09
 M11     2073.995   0.1000000E-09
 M11     2088.990   0.3072298E-06
 M11     2104.020   0.8840694E-06
 M11     2119.000   0.4150738E-05
 M11     2133.995   0.1379399E-04
 M11     2149.015   0.4538850E-04
 M11     2163.995   0.1431189E-03
 M11     2178.300   0.4824385E-03
 M11     2178.995   0.4902205E-03
 M11     2179.595   0.5091236E-03
 M11     2180.890   0.5692153E-03
 M11     2182.210   0.6122708E-03
 M11     2183.505   0.6816596E-03
 M11     2184.800   0.7671340E-03
 M11     2186.115   0.8642562E-03
 M11     2187.410   0.9732726E-03
 M11     2188.690   0.1094522E-02
 M11     2190.015   0.1226123E-02
 M11     2191.290   0.1367605E-02
 M11     2192.605   0.1548250E-02
 M11     2193.890   0.1756778E-02
 M11     2195.190   0.2002116E-02
 M11     2196.505   0.2276867E-02
 M11     2197.795   0.2591258E-02
 M11     2199.100   0.2982035E-02
 M11     2200.405   0.3426841E-02
 M11     2201.705   0.3944567E-02
 M11     2203.000   0.4574156E-02
 M11     2204.315   0.5333759E-02
 M11     2205.590   0.6205358E-02
 M11     2206.890   0.7301047E-02
 M11     2208.205   0.8600765E-02
 M11     2209.510   0.1017902E-01
 M11     2210.795   0.1205443E-01
 M11     2212.080   0.1440430E-01
 M11     2213.395   0.1732226E-01
 M11     2214.695   0.2101115E-01
 M11     2216.000   0.2568841E-01
 M11     2217.300   0.3163742E-01
 M11     2218.595   0.3898704E-01
 M11     2219.905   0.4897579E-01
 M11     2221.205   0.6180035E-01
 M11     2222.495   0.7914234E-01
 M11     2223.795   0.1014776E+00
 M11     2225.095   0.1305445E+00
 M11     2226.410   0.1698651E+00
 M11     2227.705   0.2192104E+00
 M11     2228.995   0.2834807E+00
 M11     2230.305   0.3629333E+00
 M11     2231.605   0.4562319E+00
 M11     2232.905   0.5582168E+00
 M11     2234.190   0.6643794E+00
 M11     2235.500   0.7646574E+00
 M11     2236.800   0.8503782E+00
 M11     2238.095   0.9130458E+00
 M11     2239.405   0.9458891E+00
 M11     2240.690   0.9570014E+00
 M11     2242.010   0.9517604E+00
 M11     2243.305   0.9375974E+00
 M11     2244.580   0.9205143E+00
 M11     2245.895   0.9061921E+00
 M11     2247.190   0.8925640E+00
 M11     2248.505   0.8827394E+00
 M11     2249.800   0.8794740E+00
 M11     2251.105   0.8848220E+00
 M11     2252.405   0.8932361E+00
 M11     2253.715   0.9080145E+00
 M11     2254.985   0.9207376E+00
 M11     2256.300   0.9398361E+00
 M11     2257.605   0.9570883E+00
 M11     2258.885   0.9730685E+00
 M11     2260.200   0.9868715E+00
 M11     2261.495   0.9954548E+00
 M11     2262.785   0.1000000E+01
 M11     2264.105   0.9998679E+00
 M11     2265.395   0.9964330E+00
 M11     2266.695   0.9875756E+00
 M11     2268.010   0.9754736E+00
 M11     2269.305   0.9631906E+00
 M11     2270.590   0.9494268E+00
 M11     2271.895   0.9261404E+00
 M11     2273.195   0.8993315E+00
 M11     2274.490   0.8660229E+00
 M11     2275.805   0.8295851E+00
 M11     2277.085   0.7883358E+00
 M11     2278.405   0.7435601E+00
 M11     2279.695   0.6961823E+00
 M11     2281.000   0.6428357E+00
 M11     2282.305   0.5861344E+00
 M11     2283.600   0.5262153E+00
 M11     2284.915   0.4674567E+00
 M11     2286.210   0.4080672E+00
 M11     2287.500   0.3529878E+00
 M11     2288.820   0.3016647E+00
 M11     2290.090   0.2570226E+00
 M11     2291.390   0.2157839E+00
 M11     2292.710   0.1800464E+00
 M11     2293.995   0.1504296E+00
 M11     2295.290   0.1253302E+00
 M11     2296.580   0.1041507E+00
 M11     2297.905   0.8676848E-01
 M11     2299.210   0.7211579E-01
 M11     2300.515   0.5999181E-01
 M11     2301.810   0.5019185E-01
 M11     2303.100   0.4174696E-01
 M11     2304.395   0.3494919E-01
 M11     2305.690   0.2938322E-01
 M11     2307.005   0.2470531E-01
 M11     2308.300   0.2092985E-01
 M11     2309.615   0.1772233E-01
 M11     2310.885   0.1520598E-01
 M11     2312.185   0.1298193E-01
 M11     2313.490   0.1111307E-01
 M11     2314.780   0.9567210E-02
 M11     2316.115   0.8223739E-02
 M11     2317.415   0.7097284E-02
 M11     2318.695   0.6161844E-02
 M11     2320.000   0.5336707E-02
 M11     2321.305   0.4636605E-02
 M11     2322.605   0.4073020E-02
 M11     2323.920   0.3559671E-02
 M11     2325.190   0.3147525E-02
 M11     2326.500   0.2742471E-02
 M11     2327.790   0.2415980E-02
 M11     2329.105   0.2111020E-02
 M11     2330.395   0.1851504E-02
 M11     2331.710   0.1617916E-02
 M11     2333.005   0.1400867E-02
 M11     2334.310   0.1220318E-02
 M11     2335.600   0.1060188E-02
 M11     2336.910   0.9286799E-03
 M11     2338.190   0.7995928E-03
 M11     2343.995   0.4293944E-03
 M11     2360.005   0.2315510E-03
 M11     2376.005   0.1016868E-03
 M11     2391.995   0.4792157E-04
 M11     2407.990   0.2446552E-04
 M11     2424.010   0.1359335E-04
 M11     2433.995   0.9837624E-05
 M11     2450.010   0.5849906E-05
 M11     2465.985   0.3586437E-05
 M11     2482.000   0.2156879E-05
 M11     2498.010   0.1385669E-05
 M11     2514.005   0.1216379E-05
 M11     2530.000   0.8276394E-06
 M11     2545.995   0.1000000E-09
 M11     2562.005   0.1000000E-09
 M11     2577.990   0.1000000E-09
 M11     2594.005   0.1000000E-09
 M11     2609.995   0.1000000E-09
 M11     2626.000   0.1000000E-09
 M11     2642.000   0.1000000E-09
 M11     2658.005   0.1000000E-09
 M11     2674.005   0.1000000E-09
 M11     2689.995   0.1000000E-09
 M11     2706.000   0.1000000E-09
 M11     2722.000   0.1000000E-09
 M11     2738.005   0.1000000E-09
 M11     2753.990   0.1000000E-09
 M11     2769.995   0.1000000E-09
 M11     2786.005   0.1000000E-09
 M11     2801.990   0.1000000E-09
 M11     2818.005   0.1000000E-09
 M11     2834.005   0.1000000E-09
 M11     2850.000   0.1000000E-09
 M11     2866.005   0.1000000E-09
 M11     2881.995   0.1000000E-09
 M11     2897.995   0.1000000E-09
 M11     2914.000   0.1000000E-09
 M11     2930.010   0.1000000E-09
 M11     2976.050   0.1000000E-09
 M11     3040.960   0.1000000E-09
 M11     3106.030   0.1000000E-09
 M11     3171.090   0.1000000E-09
 M11     3236.030   0.1000000E-09
 M11     3301.060   0.1000000E-09
 M11     3365.960   0.1000000E-09
 M11     3431.020   0.1000000E-09
 M11     3496.060   0.1000000E-09
 M11     3560.995   0.1000000E-09
 M11     3626.000   0.1000000E-09
 M11     3691.070   0.1000000E-09
 M11     3755.970   0.1000000E-09
 M11     3820.930   0.1000000E-09
 M11     3885.985   0.9781194E-06
 M11     3951.015   0.1000000E-09
 M11     4016.030   0.1000000E-09
 M11     4080.980   0.1000000E-09
 M11     4145.900   0.1000000E-09
 M11     4210.990   0.1000000E-09
 M11     4275.965   0.1000000E-09
 M11     4340.995   0.1000000E-09
 M11     4406.080   0.1000000E-09
 M11     4470.920   0.1099757E-04
 M11     4536.010   0.2025836E-04
 M11     4601.055   0.2890468E-05
 M11     4666.080   0.1000000E-09
 M11     4731.020   0.1000000E-09
 M11     4795.955   0.1000000E-09
 M11     4860.985   0.1000000E-09
 M11     4925.930   0.1000000E-09
 M11     4991.035   0.1000000E-09
 M11     5055.950   0.1000000E-09
 M11     5120.990   0.1000000E-09
 M11     5185.985   0.1000000E-09
 M11     5251.045   0.1000000E-09
 M11     5315.920   0.1000000E-09
 M11     5380.935   0.1000000E-09
 M11     5446.040   0.1000000E-09
 M11     5511.010   0.1000000E-09
 M11     5575.930   0.1000000E-09
 M11     5641.045   0.1000000E-09
 M11     5705.970   0.1000000E-09
 M11     5770.990   0.1000000E-09
 M11     5836.075   0.1000000E-09
 M11     5901.000   0.1000000E-09
 M11     5966.065   0.1000000E-09
 M11     6030.980   0.1000000E-09
 M11     6096.020   0.1000000E-09
 M11     6160.995   0.1000000E-09
 M11     6226.015   0.1000000E-09
 M11     6290.995   0.1000000E-09
 M11     6355.995   0.1000000E-09
 M11     6420.990   0.1000000E-09
 M11     6485.970   0.1000000E-09
 M11     6551.010   0.1000000E-09
 M11     6615.965   0.1000000E-09
 M11     6681.010   0.1000000E-09
 M11     6746.005   0.1000000E-09
 M11     6811.005   0.1000000E-09
 M11     6876.010   0.1000000E-09
 M11     6941.000   0.1000000E-09
 M11     7005.965   0.1000000E-09
 M11     7071.045   0.1000000E-09
 M11     7136.015   0.1000000E-09
 M11     7201.000   0.1000000E-09
