#DAWG J1 VIIRS Band Average RSR Release V1 Band M16A
#Based upon VCST PR1.4 RSR Analysis
#Using J1 VIIRS FP-15,-16 RSR Measurements at Raytheon El Segundo, July - October 2015
#Detector numbering in Raytheon Sensor Order
#Band     wvl_nm        RSR
 M16A    1799.985   0.1000000E-09
 M16A    1815.990   0.1000000E-09
 M16A    1831.985   0.1000000E-09
 M16A    1847.990   0.1000000E-09
 M16A    1864.015   0.1000000E-09
 M16A    1879.980   0.1000000E-09
 M16A    1896.015   0.1000000E-09
 M16A    1911.995   0.1000000E-09
 M16A    1928.000   0.1000000E-09
 M16A    1943.985   0.1000000E-09
 M16A    1960.005   0.1000000E-09
 M16A    1975.995   0.1000000E-09
 M16A    1992.000   0.1000000E-09
 M16A    2008.000   0.1000000E-09
 M16A    2023.985   0.1000000E-09
 M16A    2039.990   0.1000000E-09
 M16A    2056.020   0.1000000E-09
 M16A    2071.995   0.1000000E-09
 M16A    2087.995   0.1000000E-09
 M16A    2104.020   0.1000000E-09
 M16A    2119.995   0.1000000E-09
 M16A    2135.985   0.1000000E-09
 M16A    2151.990   0.1000000E-09
 M16A    2168.005   0.1000000E-09
 M16A    2184.005   0.1000000E-09
 M16A    2199.990   0.1000000E-09
 M16A    2216.000   0.1000000E-09
 M16A    2232.005   0.1000000E-09
 M16A    2248.000   0.1000000E-09
 M16A    2263.995   0.1000000E-09
 M16A    2279.995   0.1000000E-09
 M16A    2296.015   0.1000000E-09
 M16A    2311.985   0.1000000E-09
 M16A    2327.985   0.1000000E-09
 M16A    2343.995   0.1000000E-09
 M16A    2360.005   0.1000000E-09
 M16A    2376.005   0.1000000E-09
 M16A    2391.995   0.1000000E-09
 M16A    2407.990   0.1000000E-09
 M16A    2424.010   0.1000000E-09
 M16A    2433.995   0.1000000E-09
 M16A    2450.010   0.1000000E-09
 M16A    2465.985   0.1000000E-09
 M16A    2482.000   0.1000000E-09
 M16A    2498.010   0.1000000E-09
 M16A    2514.005   0.1000000E-09
 M16A    2530.000   0.1000000E-09
 M16A    2545.995   0.1000000E-09
 M16A    2562.005   0.1000000E-09
 M16A    2577.990   0.1000000E-09
 M16A    2594.005   0.1000000E-09
 M16A    2609.995   0.1000000E-09
 M16A    2626.000   0.1000000E-09
 M16A    2642.000   0.1000000E-09
 M16A    2658.005   0.1000000E-09
 M16A    2674.005   0.1000000E-09
 M16A    2689.995   0.1000000E-09
 M16A    2706.000   0.1000000E-09
 M16A    2722.000   0.1000000E-09
 M16A    2738.005   0.1000000E-09
 M16A    2753.990   0.1000000E-09
 M16A    2769.995   0.1000000E-09
 M16A    2786.005   0.1000000E-09
 M16A    2801.990   0.1000000E-09
 M16A    2818.005   0.1000000E-09
 M16A    2834.005   0.1000000E-09
 M16A    2850.000   0.1000000E-09
 M16A    2866.005   0.1000000E-09
 M16A    2881.995   0.1000000E-09
 M16A    2897.995   0.1000000E-09
 M16A    2914.000   0.1000000E-09
 M16A    2930.010   0.1000000E-09
 M16A    2965.000   0.1000000E-09
 M16A    3030.090   0.1000000E-09
 M16A    3094.975   0.1000000E-09
 M16A    3160.045   0.1000000E-09
 M16A    3225.085   0.1000000E-09
 M16A    3290.020   0.1000000E-09
 M16A    3354.945   0.1000000E-09
 M16A    3419.910   0.1000000E-09
 M16A    3484.990   0.1000000E-09
 M16A    3550.055   0.1000000E-09
 M16A    3615.050   0.1000000E-09
 M16A    3679.965   0.1000000E-09
 M16A    3744.980   0.1000000E-09
 M16A    3810.000   0.1000000E-09
 M16A    3875.005   0.1000000E-09
 M16A    3939.955   0.1000000E-09
 M16A    4004.935   0.1000000E-09
 M16A    4070.025   0.1000000E-09
 M16A    4135.025   0.1000000E-09
 M16A    4200.000   0.1000000E-09
 M16A    4265.075   0.1000000E-09
 M16A    4330.075   0.1000000E-09
 M16A    4395.065   0.1000000E-09
 M16A    4459.995   0.1000000E-09
 M16A    4525.015   0.1000000E-09
 M16A    4590.065   0.1000000E-09
 M16A    4655.000   0.1000000E-09
 M16A    4719.980   0.1000000E-09
 M16A    4785.015   0.1000000E-09
 M16A    4850.010   0.1000000E-09
 M16A    4915.010   0.1000000E-09
 M16A    4979.965   0.1000000E-09
 M16A    5045.040   0.1000000E-09
 M16A    5109.960   0.1000000E-09
 M16A    5175.075   0.1000000E-09
 M16A    5240.010   0.1000000E-09
 M16A    5304.980   0.1000000E-09
 M16A    5370.035   0.1000000E-09
 M16A    5435.025   0.1000000E-09
 M16A    5447.935   0.1000000E-09
 M16A    5513.090   0.1000000E-09
 M16A    5577.945   0.1000000E-09
 M16A    5642.910   0.1000000E-09
 M16A    5708.040   0.1000000E-09
 M16A    5772.995   0.1000000E-09
 M16A    5837.920   0.1000000E-09
 M16A    5902.955   0.1000000E-09
 M16A    5968.050   0.1000000E-09
 M16A    6033.005   0.1000000E-09
 M16A    6098.060   0.1000000E-09
 M16A    6162.965   0.1000000E-09
 M16A    6228.010   0.1000000E-09
 M16A    6292.920   0.1000000E-09
 M16A    6357.955   0.1000000E-09
 M16A    6422.960   0.1000000E-09
 M16A    6487.990   0.1000000E-09
 M16A    6552.955   0.1000000E-09
 M16A    6618.015   0.1000000E-09
 M16A    6683.000   0.1000000E-09
 M16A    6748.020   0.1000000E-09
 M16A    6813.030   0.1000000E-09
 M16A    6877.985   0.1000000E-09
 M16A    6943.000   0.1000000E-09
 M16A    7008.075   0.1000000E-09
 M16A    7072.995   0.1000000E-09
 M16A    7138.125   0.1000000E-09
 M16A    7268.185   0.1000000E-09
 M16A    7398.140   0.1000000E-09
 M16A    7527.940   0.1000000E-09
 M16A    7658.065   0.1000000E-09
 M16A    7787.875   0.1000000E-09
 M16A    7917.985   0.1000000E-09
 M16A    8048.010   0.1000000E-09
 M16A    8178.120   0.1000000E-09
 M16A    8307.830   0.6390076E-02
 M16A    8437.975   0.1566737E-03
 M16A    8568.030   0.1000000E-09
 M16A    8698.120   0.1000000E-09
 M16A    8827.975   0.1493956E-03
 M16A    8958.010   0.2757112E-02
 M16A    9088.030   0.4976955E-03
 M16A    9218.005   0.2769630E-03
 M16A    9347.990   0.1032069E-03
 M16A    9477.950   0.1342828E-03
 M16A    9596.940   0.1000000E-09
 M16A    9727.150   0.1000000E-09
 M16A    9857.065   0.1000000E-09
 M16A    9987.030   0.1000000E-09
 M16A   10117.100   0.1000000E-09
 M16A   10247.050   0.1000000E-09
 M16A   10377.200   0.1000000E-09
 M16A   10507.000   0.1000000E-09
 M16A   10637.000   0.2835534E-03
 M16A   10767.000   0.5270894E-03
 M16A   10897.050   0.1312803E-02
 M16A   11026.950   0.4092274E-02
 M16A   11092.000   0.8263333E-02
 M16A   11157.100   0.1760416E-01
 M16A   11221.850   0.4045980E-01
 M16A   11286.900   0.1007982E+00
 M16A   11351.850   0.2402060E+00
 M16A   11417.000   0.4696723E+00
 M16A   11481.800   0.7018259E+00
 M16A   11546.900   0.8231521E+00
 M16A   11612.050   0.8802875E+00
 M16A   11676.950   0.9236943E+00
 M16A   11742.050   0.9563164E+00
 M16A   11807.050   0.9866759E+00
 M16A   11872.000   0.1000000E+01
 M16A   11936.900   0.9946329E+00
 M16A   12001.950   0.9372758E+00
 M16A   12067.050   0.8474770E+00
 M16A   12132.150   0.7721472E+00
 M16A   12196.850   0.7299542E+00
 M16A   12262.100   0.6825565E+00
 M16A   12326.900   0.5419480E+00
 M16A   12392.100   0.3341874E+00
 M16A   12456.950   0.1575695E+00
 M16A   12522.150   0.6595077E-01
 M16A   12587.100   0.2983542E-01
 M16A   12651.850   0.1446895E-01
 M16A   12716.900   0.7322284E-02
 M16A   12782.150   0.3867102E-02
 M16A   12846.900   0.2254152E-02
 M16A   12976.900   0.7723200E-03
 M16A   13106.950   0.1000000E-09
 M16A   13237.100   0.1000000E-09
 M16A   13367.000   0.1000000E-09
 M16A   13497.050   0.1000000E-09
 M16A   13627.000   0.1000000E-09
 M16A   13757.200   0.1000000E-09
 M16A   13887.050   0.1000000E-09
 M16A   14017.050   0.1000000E-09
 M16A   14147.000   0.1000000E-09
 M16A   14277.150   0.1000000E-09
 M16A   14407.050   0.1000000E-09
 M16A   14537.100   0.1000000E-09
 M16A   14666.950   0.1000000E-09
 M16A   14797.000   0.1000000E-09
 M16A   14927.050   0.1000000E-09
 M16A   15057.000   0.1000000E-09
 M16A   15187.050   0.1000000E-09
 M16A   15317.000   0.1000000E-09
 M16A   15446.950   0.1000000E-09
 M16A   15577.050   0.1000000E-09
 M16A   15706.950   0.1000000E-09
 M16A   15836.950   0.1000000E-09
 M16A   15966.850   0.1000000E-09
 M16A   16096.900   0.1000000E-09
